Basic Example • opendatascotland
…
Some data is only available in JSON or CSV formats which does not
automatically have spatial geometry. For example, the Glasgow cycling
counts does have latitude and longitude
variables but is downloaded as JSON and therefore does not have spatial
geometry added by default. This type of data is converted to a data
frame.

Let’s download the Glasgow cycle counts data which is only available
in JSON format.

cycle_count <- get_ods(search = "lasgow City Council - Daily cycling counts from automatic cycling counters")

cycle_count <- cycle_count[[1]]
cycle_count
#> # A tibble: 1,000 × 10
#>    provider     area  siteID location latitude longitude startTime endTime count
#>  * <chr>        <chr> <chr>  <chr>       <dbl>     <dbl> <chr>     <chr>   <int>
#>  1 Glasgow Cit… Glas… GLG04… Bisland…     55.9     -4.28 2023-04-… 2023-0…    33
#>  2 Glasgow Cit… Glas… GLG03… London …     55.8     -4.22 2023-04-… 2023-0…   119
#>  3 Glasgow Cit… Glas… GLG03… Hawthor…     55.9     -4.24 2023-04-… 2023-0…    41
#>  4 Glasgow Cit… Glas… GLG03… CP St A…     55.8     -4.29 2023-04-… 2023-0…   253
#>  5 Glasgow Cit… Glas… GLG03… Pollok …     55.8     -4.30 2023-04-… 2023-0…   146
#>  6 Glasgow Cit… Glas… GLG03… Glasgow…     55.9     -4.25 2023-04-… 2023-0…     0
#>  7 Glasgow Cit… Glas… GLG03… Barrhea…     55.8     -4.32 2023-04-… 2023-0…    94
#>  8 Glasgow Cit… Glas… GLG03… Balshag…     55.9     -4.33 2023-04-… 2023-0…   174
#>  9 Glasgow Cit… Glas… GLG02… Balshag…     55.9     -4.33 2023-04-… 2023-0…    98
#> 10 Glasgow Cit… Glas… GLG02… CP Gars…     55.9     -4.26 2023-04-… 2023-0…  1510
#> # ℹ 990 more rows
#> # ℹ 1 more variable: usmart_id <chr>
…
